URJC MDS TFM - Financial Credit Risk
…
Guardamos además la partición de datos de test para ser utilizada a
futuro para la validación del modelo final y pasamos a trabajar de aquí
en adelante con la partición de training.

set.seed(101)

sample <- sample.int(n = nrow(fin_credrisk), size = floor(0.8 *
    nrow(fin_credrisk)), replace = F)
fcr_train <- fin_credrisk[sample, ]
fcr_test <- fin_credrisk[-sample, ]
fcr_train

## # A tibble: 26,059 × 12
##    person_age person_i…¹ perso…² perso…³ loan_…⁴ loan_…⁵ loan_…⁶ loan_…⁷ loan_…⁸
##         <dbl>      <dbl> <fct>     <dbl> <fct>   <fct>     <dbl>   <dbl>   <dbl>
##  1         28      44000 RENT          2 MEDICAL C         10000   13.5        1
##  2         21      35000 OWN           5 VENTURE B          8000    9.91       0
##  3         25      96000 MORTGA…       6 HOMEIM… C         21000   14.6        0
##  4         22      67000 OWN           5 EDUCAT… D          7500   16.3        0
##  5         24      52800 RENT          8 PERSON… A          9000    7.49       0
##  6         27      50004 RENT         12 DEBTCO… B          3200   11.5        0
##  7         23      55488 RENT          4 MEDICAL D          5000   15.2        1
##  8         28      70000 RENT          2 DEBTCO… B          6000   10.4        0
##  9         22      55000 MORTGA…       6 PERSON… C         13000   13.8        0
## 10         26      43200 RENT          5 EDUCAT… C          3200   14.4        0
## # … with 26,049 more rows, 3 more variables: loan_percent_income <dbl>,
## #   cb_person_default_on_file <fct>, cb_person_cred_hist_length <dbl>, and
## #   abbreviated variable names ¹​person_income, ²​person_home_ownership,
## #   ³​person_emp_length, ⁴​loan_intent, ⁵​loan_grade, ⁶​loan_amnt, ⁷​loan_int_rate,
## #   ⁸​loan_status

fcr_test

## # A tibble: 6,515 × 12
##    person_age person_i…¹ perso…² perso…³ loan_…⁴ loan_…⁵ loan_…⁶ loan_…⁷ loan_…⁸
##         <dbl>      <dbl> <fct>     <dbl> <fct>   <fct>     <dbl>   <dbl>   <dbl>
##  1         23      65500 RENT          4 MEDICAL C         35000   15.2        1
##  2         21       9900 OWN           2 VENTURE A          2500    7.14       1
##  3         23      95000 RENT          2 VENTURE A         35000    7.9        1
##  4         23     500000 MORTGA…       7 DEBTCO… B         30000   10.6        0
##  5         25     137000 RENT          9 PERSON… E         34800   16.8        0
##  6         24      10980 OWN           0 PERSON… A          1500    7.29       0
##  7         22      48000 RENT          1 EDUCAT… E         30000   18.4        1
##  8         24      12000 OWN           4 VENTURE B          2500   12.7        1
##  9         23     300000 OWN           1 EDUCAT… F         24250   19.4        0
## 10         23      78000 RENT          7 DEBTCO… F         30000   18.6        1
## # … with 6,505 more rows, 3 more variables: loan_percent_income <dbl>,
## #   cb_person_default_on_file <fct>, cb_person_cred_hist_length <dbl>, and
## #   abbreviated variable names ¹​person_income, ²​person_home_ownership,
## #   ³​person_emp_length, ⁴​loan_intent, ⁵​loan_grade, ⁶​loan_amnt, ⁷​loan_int_rate,
## #   ⁸​loan_status
…
